# k, recommended-items, recall


efficientNetV2B0_2
5    23925.0  0.017527
25   26816.0  0.039419
50   27554.0  0.049426
100  28072.0  0.058284

DenseNet121_1
5    24186.0  0.016840
25   26950.0  0.037279
50   27685.0  0.046417
100  28162.0  0.054729

efficientNetV2B2_2
5    24099.0  0.018196
25   26942.0  0.040465
50   27666.0  0.050625
100  28113.0  0.059503

efficientNetV2B1_2
5    24050.0  0.018773
25   26880.0  0.041349
50   27636.0  0.051413
100  28129.0  0.060461
  
DenseNet169_1
5    23891.0  0.015371
25   26690.0  0.035579
50   27467.0  0.044661
100  27920.0  0.052641

efficientNetV2B3_2
5    23466.0  0.021148
25   26392.0  0.046028
50   27158.0  0.057147
100  27674.0  0.066995
    
efficientNetV2L_2
5    23454.0  0.017122
25   26214.0  0.037393
50   26976.0  0.046870
100  27494.0  0.055191

VGG16_3
5    23915.0  0.023622
25   26833.0  0.050851
50   27602.0  0.062774
100  28138.0  0.072770
  
VGG19_3
5    23852.0  0.021950
25   26834.0  0.047398
50   27630.0  0.058708
100  28095.0  0.068463
  
DenseNet201_1
5    24048.0  0.018166
25   27023.0  0.039851
50   27780.0  0.049619
100  28257.0  0.058171
